R 语言数据分析实战 - 33 概率推理框架
…
fit_logit_horseshoe <- mod_logit_horseshoe$sample(
  data = mdata,
  chains = 2,
  parallel_chains = 2,
  iter_warmup = 1000, 
  iter_sampling = 1000, 
  threads_per_chain = 2, 
  seed = 20232023,
  show_messages = FALSE,
  refresh = 0
)

fit_logit_horseshoe$summary(c("alpha", "beta", "tau", "lambda", "lp__")) 

#> # A tibble: 23 × 10
#>    variable     mean   median     sd    mad      q5     q95  rhat ess_bulk
#>    <chr>       <dbl>    <dbl>  <dbl>  <dbl>   <dbl>   <dbl> <dbl>    <dbl>
#>  1 alpha     0.933    0.932   0.0770 0.0741  0.809   1.07   1.00     1274.
#>  2 beta[1]   3.05     3.05    0.133  0.133   2.83    3.26   1.00     1382.
#>  3 beta[2]  -1.97    -1.96    0.0985 0.0975 -2.13   -1.80   1.00     1875.
#>  4 beta[3]   0.0272   0.0196  0.0485 0.0399 -0.0407  0.119  0.999    1697.
#>  5 beta[4]  -0.0112  -0.00764 0.0453 0.0383 -0.0905  0.0591 1.00     1777.
#>  6 beta[5]   0.00532  0.00429 0.0432 0.0347 -0.0684  0.0838 1.00     1920.
#>  7 beta[6]   0.00861  0.00554 0.0453 0.0386 -0.0625  0.0890 1.00     2330.
#>  8 beta[7]   0.0622   0.0572  0.0557 0.0595 -0.0135  0.164  1.00     1450.
#>  9 beta[8]  -0.0153  -0.0111  0.0455 0.0362 -0.0959  0.0543 1.00     1838.
#> 10 beta[9]  -0.0490  -0.0396  0.0546 0.0549 -0.152   0.0218 1.00     1638.
#> # ℹ 13 more rows
#> # ℹ 1 more variable: ess_tail <dbl>
…
